%YAML 1.1
%TAG !u! tag:unity3d.com,2011:
--- !u!21 &2100000
Material:
  serializedVersion: 6
  m_ObjectHideFlags: 0
  m_PrefabParentObject: {fileID: 0}
  m_PrefabInternal: {fileID: 0}
  m_Name: sniperD
  m_Shader: {fileID: 22, guid: 0000000000000000f000000000000000, type: 0}
  m_ShaderKeywords: _EMISSION _NORMALMAP _SPECGLOSSMAP
  m_LightmapFlags: 1
  m_EnableInstancingVariants: 0
  m_DoubleSidedGI: 0
  m_CustomRenderQueue: -1
  stringTagMap: {}
  disabledShaderPasses: []
  m_SavedProperties:
    serializedVersion: 3
    m_TexEnvs:
    - _BumpMap:
        m_Texture: {fileID: 2800000, guid: 048d27ab6487db04dbc4766597262a79, type: 3}
        m_Scale: {x: 1, y: 1}
        m_Offset: {x: 0, y: 0}
    - _Cube:
        m_Texture: {fileID: 8900000, guid: 1eebc3d0f2a7e75408d28c3185a00c69, type: 3}
        m_Scale: {x: 1, y: 1}
        m_Offset: {x: 0, y: 0}
    - _DetailAlbedoMap:
        m_Texture: {fileID: 0}
        m_Scale: {x: 5, y: 5}
        m_Offset: {x: 0, y: 0}
    - _DetailMask:
        m_Texture: {fileID: 0}
        m_Scale: {x: 1, y: 1}
        m_Offset: {x: 0, y: 0}
    - _DetailNormalMap:
        m_Texture: {fileID: 0}
        m_Scale: {x: 1, y: 1}
        m_Offset: {x: 0, y: 0}
    - _EmissionMap:
        m_Texture: {fileID: 0}
        m_Scale: {x: 1, y: 1}
        m_Offset: {x: 0, y: 0}
    - _MainTex:
        m_Texture: {fileID: 2800000, guid: 8d6314759420b1f41b0338c30283ffc0, type: 3}
        m_Scale: {x: 1, y: 1}
        m_Offset: {x: 0, y: -1}
    - _MetallicGlossMap:
        m_Texture: {fileID: 0}
        m_Scale: {x: 1, y: 1}
        m_Offset: {x: 0, y: 0}
    - _OcclusionMap:
        m_Texture: {fileID: 0}
        m_Scale: {x: 1, y: 1}
        m_Offset: {x: 0, y: 0}
    - _ParallaxMap:
        m_Texture: {fileID: 0}
        m_Scale: {x: 1, y: 1}
        m_Offset: {x: 0, y: 0}
    - _SpecGlossMap:
        m_Texture: {fileID: 2800000, guid: cdbf4b2282147d148b8a82f5b97dfbe1, type: 3}
        m_Scale: {x: 1, y: 1}
        m_Offset: {x: 0, y: 0}
    - _Specular:
        m_Texture: {fileID: 2800000, guid: 8183b136f2356934a9198bdc9fa44893, type: 3}
        m_Scale: {x: 1, y: 1}
        m_Offset: {x: 0, y: 0}
    - _detailNormal:
        m_Texture: {fileID: 2800000, guid: 43add78506201e24badb87aa6be2f684, type: 3}
        m_Scale: {x: 4, y: 4}
        m_Offset: {x: 0, y: 0}
    - _detailcolor:
        m_Texture: {fileID: 2800000, guid: 78471245add51074785e3ab8cfedb636, type: 3}
        m_Scale: {x: 4, y: 4}
        m_Offset: {x: 0, y: 0}
    - _reflectmap:
        m_Texture: {fileID: 8900000, guid: ff76a492458db6f468d508adbef8f996, type: 3}
        m_Scale: {x: 1, y: 1}
        m_Offset: {x: 0, y: 0}
    m_Floats:
    - _BumpScale: 1
    - _Cutoff: 0.5
    - _DetailNormalMapScale: 0.31
    - _DstBlend: 0
    - _EmissionScaleUI: 0
    - _GlossMapScale: 1
    - _Glossiness: 0.5
    - _GlossyReflections: 1
    - _Metallic: 0
    - _Mode: 0
    - _OcclusionStrength: 1
    - _Parallax: 0.02
    - _Shininess: 0.22
    - _SmoothnessTextureChannel: 0
    - _SpecularHighlights: 1
    - _SrcBlend: 1
    - _UVSec: 0
    - _ZWrite: 1
    - _reflectionadd: 3.2
    m_Colors:
    - _Color: {r: 0.9852941, g: 0.9852941, b: 0.9852941, a: 1}
    - _EmissionColor: {r: 0, g: 0, b: 0, a: 0}
    - _EmissionColorUI: {r: 1, g: 1, b: 1, a: 1}
    - _ReflectColor: {r: 0.39607844, g: 0.39607844, b: 0.39607844, a: 1}
    - _SpecColor: {r: 0.5568628, g: 0.5568628, b: 0.5568628, a: 1}
